{
	"questions": [
		["as in \"tattle\" and \"dud\".", "t", "d"],
		["as in \"sass\" and \"zoo\".", "s", "z"],
		["as in \"think\" and \"the\".", "θ", "ð"],
		["as in \"fish\" and \"van\".", "f", "v"],
		["as in \"puppy\" and \"boat\".", "p", "b"],
		["as in \"kick\" and \"go\".", "k", "g"],
		["as in \"ship\" and \"vision\".", "ʃ", "ʒ"],
		["as in Scottish \"loch\" and Dutch \"Gogh\".", "x", "ɣ"],
		["as in \"huge\" and some Spanish dialects \"yo\".", "ç", "ʝ"]
	],
	"ejectives": ["p", "t", "k", "s", "f"]
}
